<?xml version="1.0" encoding="UTF-8"?>
<svg width="100px" height="100px" viewBox="0 0 100 100" version="1.1" xmlns="http://www.w3.org/2000/svg" xmlns:xlink="http://www.w3.org/1999/xlink">
    <title>Shape</title>
    <g id="Page-1" stroke="none" stroke-width="1" fill="none" fill-rule="evenodd">
        <g id="About-Us-Desktop" transform="translate(-473.000000, -4704.000000)" fill="#FFFFFF" fill-rule="nonzero">
            <path d="M523.017703,4704 C503.011453,4703.99708 484.93022,4715.92479 477.055818,4734.31999 L476.432615,4734.52666 L476.674231,4735.25166 C466.306391,4760.8279 478.630699,4789.96811 504.201622,4800.3381 C510.17392,4802.76019 516.558215,4804.00352 523.002914,4803.99998 C550.61133,4804.00414 572.995834,4781.62165 573,4754.00749 C573.004166,4726.39333 550.626327,4704.00396 523.017703,4704 Z M562.22891,4779.20915 L559.661945,4776.64332 L559.661945,4770.66665 C559.664861,4770.40874 559.60779,4770.15374 559.495313,4769.92165 L552.996667,4756.93999 L552.996667,4750.66666 C552.996667,4750.10957 552.7186,4749.58916 552.255154,4749.27999 L547.256196,4745.94666 C546.864402,4745.68499 546.380128,4745.60145 545.92314,4745.71666 L539.801082,4747.24666 L529.518224,4742.83333 L528.103519,4732.91999 L532.024368,4729 L540.440949,4729 L543.273692,4733.25833 C543.529472,4733.64124 543.932513,4733.90145 544.386793,4733.97666 L554.384711,4735.64333 C554.652572,4735.68833 554.927098,4735.66645 555.184544,4735.57999 L564.392626,4732.50999 C572.115809,4747.33395 571.289731,4765.16332 562.22891,4779.20915 Z M555.356175,4720.42333 L552.64674,4722.23 L545.093313,4720.71833 L540.192667,4719.08666 C539.89273,4718.98479 539.56988,4718.97187 539.262861,4719.05 L533.067485,4720.59833 L530.351384,4719.69333 L532.364298,4715.66666 L537.99979,4715.66666 C538.258278,4715.66687 538.513225,4715.60708 538.744635,4715.49166 L544.510101,4712.60833 C548.480524,4714.68125 552.133097,4717.31291 555.356175,4720.42333 Z M504.751716,4711.055 L508.750883,4713.72167 C508.947509,4713.8525 509.169546,4713.94 509.402414,4713.97833 L517.477399,4715.325 L516.689229,4717.68333 L512.481772,4719.08833 C512.104976,4719.21375 511.785251,4719.46958 511.580294,4719.81 L506.794624,4727.78666 L499.107892,4732.39999 L487.776918,4734.01833 C486.955631,4734.13437 486.344925,4734.83708 486.343884,4735.66666 L486.343884,4740.66666 C486.343884,4741.10874 486.51968,4741.53249 486.832115,4741.84499 L489.676523,4744.68999 L489.676523,4747.55332 L482.744633,4742.92999 L480.230157,4735.38499 C485.014161,4724.45166 493.782542,4715.75166 504.751716,4711.055 Z M500.007704,4765.69999 L492.47594,4764.19165 L489.676523,4758.60665 L489.676523,4754.68999 L495.88523,4748.47999 L498.183084,4753.07832 C498.465317,4753.64332 499.042905,4754.0002 499.67444,4753.99999 L510.39554,4753.99999 L514.9096,4761.52499 C515.210787,4762.02645 515.752758,4762.33311 516.337636,4762.33332 L520.970004,4762.33332 L519.803581,4768.17832 L513.494895,4774.48832 C513.181835,4774.80061 513.005622,4775.22436 513.004997,4775.66665 L513.004997,4779.83332 L507.006246,4784.33332 C506.58675,4784.64811 506.339719,4785.14206 506.339719,4785.66665 L506.339719,4791.68665 L504.266817,4790.99998 L501.34076,4783.67998 L501.34076,4767.33332 C501.340968,4766.54124 500.783584,4765.85832 500.007704,4765.69999 Z M494.998747,4791.32102 C479.287645,4779.53165 472.643404,4759.16165 478.380542,4740.37333 L479.765254,4744.52666 C479.881896,4744.87812 480.112265,4745.18082 480.420118,4745.38666 L488.726721,4750.92499 L486.832115,4752.82166 C486.51968,4753.13416 486.343884,4753.55791 486.343884,4753.99999 L486.343884,4758.99999 C486.343675,4759.25853 486.403455,4759.51353 486.518847,4759.74499 L489.851486,4766.41165 C490.082272,4766.87207 490.512807,4767.19999 491.01791,4767.29999 L498.016452,4768.69832 L498.016452,4783.99998 C498.016244,4784.21165 498.056444,4784.42165 498.134761,4784.61831 L501.4674,4792.95165 C501.649862,4793.40685 502.023534,4793.75873 502.488854,4793.91331 L507.487813,4795.57998 C507.654861,4795.63665 507.829825,4795.66581 508.006038,4795.66665 C508.926263,4795.66665 509.672358,4794.9204 509.672358,4793.99998 L509.672358,4786.49998 L515.671108,4781.99998 C516.090604,4781.68519 516.337636,4781.19123 516.337636,4780.66665 L516.337636,4776.35665 L522.514683,4770.17832 C522.746926,4769.94561 522.905226,4769.64915 522.969588,4769.32665 L524.635907,4760.99332 C524.816287,4760.09061 524.230992,4759.2127 523.328471,4759.03228 C523.221202,4759.01082 523.112267,4758.99999 523.002914,4758.99999 L517.280773,4758.99999 L512.766713,4751.47499 C512.465526,4750.97353 511.923555,4750.66686 511.338677,4750.66666 L500.704226,4750.66666 L497.841489,4744.92166 C497.601747,4744.44207 497.146009,4744.10707 496.616744,4744.02166 C496.087687,4743.9302 495.547592,4744.10478 495.172045,4744.48832 L493.009162,4746.64332 L493.009162,4743.99999 C493.009162,4743.55791 492.833365,4743.13416 492.52093,4742.82166 L489.676523,4739.97666 L489.676523,4737.11166 L499.911058,4735.64999 C500.130803,4735.61812 500.342218,4735.5427 500.532595,4735.42833 L508.864193,4730.42833 C509.097894,4730.28791 509.293687,4730.09208 509.434074,4729.85833 L514.116432,4722.05333 L518.530513,4720.58 C519.02895,4720.41646 519.420119,4720.02541 519.583627,4719.52666 L521.249946,4714.52667 C521.538636,4713.65271 521.06436,4712.71 520.190583,4712.42125 C520.109975,4712.39458 520.027284,4712.37417 519.943552,4712.36 L510.298894,4710.75167 L508.604247,4709.62167 C519.090188,4706.20792 530.447405,4706.63042 540.650905,4710.81333 L537.606539,4712.33333 L531.334512,4712.33333 C530.699853,4712.32979 530.118515,4712.68729 529.834825,4713.255 L526.502185,4719.92166 C526.091646,4720.74541 526.426368,4721.74625 527.249946,4722.15687 C527.32014,4722.19187 527.392625,4722.22187 527.466984,4722.24666 L532.465943,4723.91333 C532.765881,4724.0152 533.08873,4724.02812 533.395749,4723.95 L539.591126,4722.40166 L544.13018,4723.91333 C544.195167,4723.93666 544.262028,4723.95458 544.330139,4723.96666 L552.661736,4725.63333 C553.09498,4725.72166 553.545719,4725.63291 553.913142,4725.38666 L557.705686,4722.85666 C559.572172,4724.93604 561.249531,4727.1777 562.717975,4729.55499 L554.519683,4732.28833 L545.643198,4730.80833 L542.710476,4726.40833 C542.40304,4725.94729 541.886481,4725.66937 541.33243,4725.66666 L531.334512,4725.66666 C530.892521,4725.66666 530.468859,4725.8425 530.156424,4726.155 L525.157465,4731.15499 C524.786293,4731.52604 524.611538,4732.05041 524.685897,4732.56999 L526.352217,4744.23666 C526.436157,4744.81353 526.815245,4745.30457 527.352008,4745.53166 L539.016245,4750.53166 C539.350342,4750.67645 539.723181,4750.70624 540.076025,4750.61666 L546.026452,4749.12832 L549.664028,4751.55832 L549.664028,4757.33332 C549.661111,4757.59124 549.718183,4757.84624 549.830659,4758.07832 L556.329306,4771.05998 L556.329306,4777.33332 C556.329306,4777.7754 556.505103,4778.19915 556.817537,4778.51165 L560.303478,4781.99998 C544.843573,4802.61102 515.605497,4806.78435 494.998747,4791.32102 Z" id="Shape"></path>
        </g>
    </g>
</svg>