<?xml version="1.0" encoding="UTF-8"?>
<svg width="109px" height="100px" viewBox="0 0 109 100" version="1.1" xmlns="http://www.w3.org/2000/svg" xmlns:xlink="http://www.w3.org/1999/xlink">
    <title>community</title>
    <g id="Page-1" stroke="none" stroke-width="1" fill="none" fill-rule="evenodd">
        <g id="About-Us-Desktop" transform="translate(-1112.000000, -6345.000000)" fill-rule="nonzero">
            <g id="community" transform="translate(1112.618012, 6345.000000)">
                <path d="M96.0606391,19.078125 L84.6117691,29.7033203 C80.5253676,27.91875 76.4753785,28.9708984 73.9020926,31.3548828 C71.0000425,34.0478516 70.4629064,38.0332031 72.1212508,41.2947266 L62.7411545,50 L71.6704102,58.2869141 L71.6922997,58.2646484 C75.3842682,54.8445312 81.3881108,54.8423828 85.0855517,58.2617188 C88.7792041,61.6919922 88.7792041,67.2681641 85.0855517,70.6957031 L85.0636622,70.7160156 L96.0608495,80.9216797 C103.596119,69.7705078 107.758924,63.5951172 107.763978,50 C107.770289,32.0130859 96.7057496,20.2683594 96.0606391,19.078125 Z" id="Path" fill="#F25A3C"></path>
                <path d="M33.7890576,68.6453125 C36.6911078,65.9523437 37.2282439,61.9669922 35.5698994,58.7054688 L44.9502062,50 L36.0209506,41.7130859 L35.999061,41.7349609 C32.3070925,45.1550781 26.30325,45.1572266 22.605809,41.7378906 C18.9121567,38.3076172 18.9121567,32.7314453 22.605809,29.3039062 L22.6276986,29.2837891 L11.6305112,19.078125 C4.09503106,30.2294922 0.00505143634,36.4048828 -2.71942361e-06,50 C-0.00631429542,67.9869141 10.9854007,79.7316406 11.6305112,80.921875 L23.0793812,70.2966797 C27.1657827,72.0814453 31.2157718,71.0292969 33.7890576,68.6453125 L33.7890576,68.6453125 Z" id="Path" fill="#F7F4F0"></path>
                <g id="Group" transform="translate(20.416222, 0.000000)">
                    <path d="M55.3022831,78.5494141 C57.225407,74.7570312 56.09157,70.9992187 53.5224937,68.6113281 C50.6204435,65.9183594 46.3256702,65.4199219 42.8109229,66.9587891 L33.4657657,58.2880859 L24.4992558,66.5404297 L24.5228291,66.5607422 C28.2082729,69.9865234 28.2110091,75.5580078 24.5259863,78.9890625 C20.8293873,82.4166016 14.8202828,82.4166016 11.1266304,78.9890625 L11.1049514,78.96875 L0.106922069,89.1736328 C2.14138805,90.3574219 6.37659647,93.6197266 13.7683212,96.3232422 L13.7714783,96.3232422 C20.1434443,98.6466797 26.822285,100.002148 33.4657657,100.000003 C52.8106621,99.9939453 65.4670359,89.7732422 66.7522055,89.1734375 L55.3022831,78.5494141 Z" id="Path" fill="#66CCFF"></path>
                    <path d="M33.4657657,-2.41217285e-05 C14.0823521,-0.0181640625 1.38977642,10.2279297 0.106922069,10.8261719 L11.5570549,21.4501953 C9.633931,25.2421875 10.767768,29.0003906 13.3368443,31.3882813 C16.2388945,34.08125 20.5336678,34.5796875 24.0484151,33.0408203 L33.4657657,41.7117188 L42.3598718,33.459375 L42.3358775,33.4392578 C38.6504337,30.0130859 38.6476975,24.4416016 42.3327203,21.0109375 C46.0293193,17.5833984 52.0384238,17.5833984 55.7320761,21.0109375 L55.7539657,21.0310547 L66.751995,10.8261719 C54.6982155,3.81210937 48.0614701,0.0140625 33.4657657,-2.41217285e-05 Z" id="Path" fill="#A0E65C"></path>
                </g>
            </g>
        </g>
    </g>
</svg>