<?xml version="1.0" encoding="UTF-8"?>
<svg width="100px" height="100px" viewBox="0 0 100 100" version="1.1" xmlns="http://www.w3.org/2000/svg" xmlns:xlink="http://www.w3.org/1999/xlink">
    <title>Group 8</title>
    <g id="Page-1" stroke="none" stroke-width="1" fill="none" fill-rule="evenodd">
        <g id="About-Us-Desktop" transform="translate(-473.000000, -4313.000000)" fill="#FFFFFF" fill-rule="nonzero">
            <g id="Group-8" transform="translate(473.000000, 4313.000000)">
                <path d="M33.2083479,44.2136227 C33.1711435,44.2040507 33.1339391,44.1946742 33.0953639,44.1878371 L25.7433765,42.8934793 L26.3378642,41.3774047 C26.6317792,40.6276696 26.2646302,39.7818246 25.5154504,39.4831416 L2.01478135,30.1053967 C1.26129369,29.8043697 0.406766632,30.1702514 0.105606545,30.9217446 C-0.195749356,31.6730425 0.170616394,32.5259199 0.923908238,32.826361 L23.0709234,41.6641716 L10.0196086,74.9371357 L1.95956214,72.089197 C1.19471734,71.8192299 0.355463678,72.2183202 0.0846545749,72.9813389 C-0.186154528,73.7441621 0.214282649,74.5816073 0.978931635,74.8517698 L10.3791209,78.17303 C11.1169436,78.433816 11.952281,78.0523067 12.2371886,77.3256223 L14.4183474,71.7649239 L20.1335356,74.9599911 L21.3155556,75.7084548 L53.9733333,95.0466472 L55.0048582,95.5952884 L55.8298175,96.100842 C58.0648248,97.4707984 61.0184651,97.2598255 63.0273086,95.5738005 C63.5336805,95.1487292 63.9691682,94.6418082 64.315561,94.0794092 C65.0040389,92.9614482 65.2889465,91.7085036 65.2137544,90.4887678 C65.6801805,90.6007006 66.1575721,90.660867 66.6392716,90.660867 C68.7724562,90.660867 70.7903071,89.5386084 71.9066359,87.726195 C72.579057,86.634215 72.8862873,85.3892796 72.8083538,84.1361397 C73.273605,84.2474865 73.7500176,84.3072621 74.2301506,84.3072621 C76.3633352,84.3072621 78.3813819,83.1850036 79.4975149,81.3725902 C80.1705235,80.2798288 80.477558,79.034112 80.399037,77.7799954 C80.8693794,77.8917329 81.3469668,77.9501411 81.8224003,77.9501411 C83.8968411,77.9501411 85.9252659,76.9081694 87.0885898,75.019376 C88.8693114,72.1280707 87.9603483,68.3307541 85.0621231,66.5542842 L84.0556453,65.9373838 C83.7664296,65.5347654 83.4349576,65.270717 83.0612291,65.1452386 C82.9277018,65.1004072 82.7487736,65.0403325 82.5244444,64.9650146 C85.0998428,65.6747977 85.4257687,65.7399094 83.5022222,65.1603499 C83.0454234,65.0227175 79.7209789,63.7204824 73.5288889,61.2536443 L33.0488889,47.1895044 C32.8216925,46.827947 32.7502161,46.3760338 32.8344595,45.8337647 C32.8796285,45.5430144 33.004258,45.0029671 33.2083479,44.2136227 Z M81.3511111,64.3790087 L74.2096481,59.7308396 C73.5339578,59.3148092 72.6029239,59.5376476 72.1878682,60.214605 C71.7726165,60.8915625 71.9950378,61.8243424 72.6707281,62.2401765 L83.5266496,68.9231684 C85.0457771,69.8585007 85.5223661,71.8575671 84.5889806,73.3797398 C83.6553992,74.9017162 81.6598787,75.379199 80.1405553,74.4440631 L68.4976348,67.2763241 C67.8060712,66.8502806 66.9007089,67.067229 66.4758549,67.7600895 C66.0510009,68.45295 66.2671512,69.3600102 66.9587148,69.785661 L75.9300325,75.308519 C77.4309351,76.2324638 77.9159507,78.2592133 76.9923635,79.7650903 C76.0701481,81.2688077 74.0471924,81.7545365 72.5441341,80.8294136 L64.413902,75.8242867 C63.7221424,75.3984396 62.8169761,75.6151917 62.392122,76.3080522 C61.967268,77.0009127 62.1834184,77.9079729 62.8749819,78.3336237 L68.3334154,81.6938695 C69.8341221,82.6180107 70.3193336,84.6443675 69.3957464,86.1504409 C68.473531,87.6539619 66.4505753,88.1400833 64.947517,87.2147641 C64.947517,87.2147641 60.147137,84.2624991 60.1022608,84.2409024 C59.4310777,83.916167 58.6103726,84.1472514 58.2121699,84.7967222 C57.7873159,85.4895827 58.0034663,86.3966429 58.6950299,86.8222937 L60.7367983,88.07922 C62.2559258,89.0145522 62.7323188,91.0136187 61.7989333,92.5357914 C60.8767179,94.0395087 58.8537622,94.5252375 57.350704,93.6001146 L56.5299989,93.0947525 L53.9733333,95.0466472 L21.3155556,75.7084548 L21.6331799,72.3527199 L15.4488889,68.8819384 L24.6079419,45.6268222 L29.5948815,46.5085554 C28.7521258,47.5572679 29.5572958,47.861608 30.6900312,47.7805685 C31.2058421,47.7436657 31.992128,47.5466444 33.0488889,47.1895044 L73.5288889,61.2536443 C74.7743831,61.7998656 75.883304,62.2438441 76.8556515,62.5855799 C77.7468254,62.8987868 79.2453119,63.4965964 81.3511111,64.3790087 Z" id="Shape"></path>
                <path d="M68.3023226,56.2992427 L54.5848011,47.9709741 C54.4176562,47.8693861 54.2254495,47.8005558 54.0314667,47.7705279 L49.7368108,47.0217793 C48.94233,46.8829488 48.1620575,47.4230617 48.0219479,48.2080779 C47.8818383,48.993094 48.4278711,49.7640711 49.2223519,49.9025116 L53.2750721,50.6091431 L66.7526312,58.7917566 C67.4105545,59.1912842 68.3129789,58.9972725 68.7496867,58.3694156 C69.218166,57.6955418 69.0066202,56.7272383 68.3023226,56.2992427 Z" id="Path"></path>
                <path d="M99.6065315,56.8520868 C99.0556984,56.2608749 98.1319339,56.2296249 97.5427566,56.7819695 L91.623929,62.3327596 L64.5030897,35.4807637 L99.5380179,2.53383618 C100.126222,1.98051499 100.156197,1.05336507 99.6049743,0.463129756 C99.053752,-0.127105559 98.1295982,-0.157183732 97.5413941,0.395942149 L61.3985713,34.3846682 C60.8025816,34.9450206 60.7901246,35.9208034 61.3715163,36.4965856 L63.7704623,38.8713941 L63.004746,39.5499108 L46.9700544,38.1643617 C46.7226661,38.1432679 46.4655458,38.1860414 46.2397626,38.2907291 L33.5349833,44.0969884 C33.5103288,44.0906081 32.5981779,44.6259605 30.7985304,45.7030456 L21.8839885,72.6562136 L20.5384377,74.8382483 L19.9118894,75.8573905 C18.136572,78.7446998 19.0328922,82.5431434 21.9104596,84.3247868 C23.4321602,85.2669758 25.3211478,85.4904137 27.0215285,84.9380691 C27.2942201,86.7161969 28.3355476,88.3029182 29.8625035,89.2482322 C31.3842041,90.1904212 33.272997,90.413859 34.9735724,89.8615144 C35.2464586,91.6396422 36.2873968,93.2261682 37.8143527,94.1716775 C39.3407247,95.1167962 41.2197856,95.3392575 42.9258109,94.7867176 C43.1990864,96.5640642 44.2398299,98.1500042 45.7663966,99.0951229 C47.9851054,100.468758 50.9218435,100.263484 52.9217763,98.5814502 C53.4258955,98.1574261 53.8597496,97.6513706 54.2050421,97.0896509 L55.2010183,95.4701171 L56.1018152,93.94531 L82.7675847,65.0390139 L84.0779055,65.8171402 L87.4333157,62.2991658 L90.5718963,65.4065926 C91.12234,65.9513201 92.0295601,65.9634294 92.5942127,65.4341317 L99.5372394,58.9229885 C100.126027,58.3704486 100.15717,57.4432987 99.6065315,56.8520868 Z M27.8639333,80.7806406 C26.9337456,82.2929477 24.9509413,82.7640422 23.443644,81.8312282 C21.9363468,80.8980236 21.4668736,78.908372 22.396672,77.3958695 L30.5743043,64.0968249 C31.4869744,62.6124475 33.4454486,62.1270952 34.9408728,63.0136201 C36.4882659,63.9315903 36.9153075,66.0603046 35.9862877,67.5714398 L27.8639333,80.7806406 Z M35.8155878,85.7040859 C34.8857894,87.216393 32.9027905,87.6876828 31.3956879,86.7546735 C29.9066869,85.8326017 29.4284548,83.8158016 30.3487158,82.3193149 L36.8905882,71.6800401 C37.8032582,70.1958581 39.7617324,69.7103104 41.2571566,70.5968353 C42.8045498,71.5148055 43.2315914,73.6435198 42.3023769,75.154655 L35.8155878,85.7040859 Z M43.7682156,90.6275313 C43.3174279,91.3601496 42.6093252,91.8730411 41.7747061,92.0714789 C40.939503,92.270112 40.0778289,92.1300727 39.3477318,91.6781189 C37.8589254,90.7560471 37.3806933,88.7390517 38.3009543,87.2427602 L43.2074559,79.2632553 C44.1201259,77.778878 46.0787948,77.2935256 47.5740243,78.1800505 C49.1214175,79.0980207 49.5484591,81.226735 48.6194393,82.7378702 L43.7682156,90.6275313 Z M54.9359177,90.3214761 L51.7200649,95.5511719 C50.8011663,97.0453149 48.791307,97.5248079 47.2997756,96.6015642 C45.8109693,95.6796877 45.3329318,93.662497 46.2529982,92.1662056 L49.5239344,86.8466659 C50.4366044,85.3626791 52.3952733,84.8765455 53.8905028,85.7636563 C55.437896,86.6814312 55.8649376,88.8103409 54.9359177,90.3214761 Z M81.5323951,64.2476064 L82.7675847,65.0390139 L56.1018152,93.94531 L56.7351759,92.9757772 L57.4216735,91.8591738 C58.2993082,90.4318278 58.5716105,88.6740125 58.1687043,87.0365099 C57.7712481,85.4204917 56.7797486,84.0724427 55.3773627,83.2406054 C54.283093,82.5917763 53.0589979,82.3288852 51.8670186,82.4095494 C52.0908553,81.4447041 52.0920232,80.4279056 51.8522259,79.4530994 C51.4547697,77.8370812 50.4632702,76.4890322 49.0608843,75.6571949 C47.9666145,75.0081704 46.7425195,74.7452794 45.5505401,74.8259436 C46.1525636,72.2306269 45.0442798,69.4382397 42.7444058,68.0737844 C41.6501361,67.4249552 40.426041,67.1620642 39.2340616,67.242533 C39.8360852,64.6472164 38.7278013,61.8548292 36.4279273,60.4903739 C33.5727436,58.7968165 29.8327235,59.724357 28.0906896,62.557174 L22.074347,72.3415646 L21.8839885,72.6562136 L30.7985304,45.7030456 L29.9822075,46.4374218 C28.5733984,48.1932839 28.1773047,50.6653582 29.169972,52.853057 C30.1972854,55.1163419 32.4290351,56.4556018 34.7596623,56.4554065 C35.6084902,56.4554065 36.4705536,56.2776718 37.2921318,55.9022806 L45.8423064,51.9944619 C46.5663697,51.663602 46.8957016,50.7805928 46.5657857,50.0540291 C46.2360645,49.3276608 45.3560941,48.9968008 44.6320309,49.3280514 L36.0816616,53.2356748 C34.4702317,53.9723947 32.5613908,53.255792 31.8272062,51.6384066 C31.0932163,50.0210212 31.8071582,48.1059791 33.4189775,47.3692592 L47.1010475,41.1163195 L63.3765096,42.5227671 C63.4183574,42.526478 63.4602051,42.5282359 63.5018582,42.5282359 C63.8561042,42.5282359 64.2000342,42.3987435 64.4680544,42.1616337 L65.8535066,40.9340927 L85.353775,60.2405688 L81.5323951,64.2476064 Z" id="Shape"></path>
            </g>
        </g>
    </g>
</svg>