<?xml version="1.0" encoding="UTF-8"?>
<svg width="1024px" height="398px" viewBox="0 0 1024 398" version="1.1" xmlns="http://www.w3.org/2000/svg" xmlns:xlink="http://www.w3.org/1999/xlink">
    <title>Group 4</title>
    <g id="Page-1" stroke="none" stroke-width="1" fill="none" fill-rule="evenodd">
        <g id="About-Us-Desktop" transform="translate(-207.000000, -7823.000000)">
            <g id="Group-4" transform="translate(207.000000, 7823.500000)">
                <text id="會員系統" font-family="NotoSansTC-Medium, Noto Sans TC" font-size="36" font-weight="400" line-spacing="80" letter-spacing="3" fill="#FFFFFF">
                    <tspan x="521" y="88.5">會員系統</tspan>
                </text>
                <text id="乾拌麵分類篩選" font-family="NotoSansTC-Medium, Noto Sans TC" font-size="36" font-weight="400" line-spacing="80" letter-spacing="3" fill="#FFFFFF">
                    <tspan x="521" y="238.5">乾拌麵分類篩選</tspan>
                </text>
                <text id="乾拌麵評價論壇" font-family="NotoSansTC-Medium, Noto Sans TC" font-size="36" font-weight="400" line-spacing="80" letter-spacing="3" fill="#FFFFFF">
                    <tspan x="521" y="388.5">乾拌麵評價論壇</tspan>
                </text>
                <text id="Coming-Soon" font-family="NotoSansTC-Medium, Noto Sans TC" font-size="36" font-weight="400" line-spacing="80" letter-spacing="3" fill="#FFBB05">
                    <tspan x="8.464" y="88.5">Coming Soon</tspan>
                </text>
                <text id="Coming-Soon" font-family="NotoSansTC-Medium, Noto Sans TC" font-size="36" font-weight="400" line-spacing="80" letter-spacing="3" fill="#FFBB05">
                    <tspan x="8.464" y="238.5">Coming Soon</tspan>
                </text>
                <text id="Coming-Soon" font-family="NotoSansTC-Medium, Noto Sans TC" font-size="36" font-weight="400" line-spacing="80" letter-spacing="3" fill="#FFBB05">
                    <tspan x="8.464" y="388.5">Coming Soon</tspan>
                </text>
                <circle id="Oval" fill="#FFFFFF" cx="396" cy="71.5" r="25"></circle>
                <circle id="Oval" fill="#FFFFFF" cx="396" cy="221.5" r="25"></circle>
                <circle id="Oval" fill="#FFFFFF" cx="396" cy="371.5" r="25"></circle>
                <path d="M393,0 L400,0 L400,370.5 C400,372.432997 398.432997,374 396.5,374 C394.567003,374 393,372.432997 393,370.5 L393,0 L393,0 Z" id="Rectangle" fill="#FFFFFF"></path>
            </g>
        </g>
    </g>
</svg>