<?xml version="1.0" encoding="UTF-8"?>
<svg width="1024px" height="404px" viewBox="0 0 1024 404" version="1.1" xmlns="http://www.w3.org/2000/svg" xmlns:xlink="http://www.w3.org/1999/xlink">
    <title>Group 11</title>
    <g id="Page-1" stroke="none" stroke-width="1" fill="none" fill-rule="evenodd">
        <g id="About-Us-Desktop" transform="translate(-207.000000, -7420.000000)">
            <g id="Group-11" transform="translate(207.000000, 7420.000000)">
                <text id="TOUCH-NOODLE-網站上線" font-family="NotoSansTC-Medium, Noto Sans TC" font-size="36" font-weight="400" line-spacing="80" letter-spacing="3" fill="#FFFFFF">
                    <tspan x="521" y="42">TOUCH NOODLE 網站上線</tspan>
                </text>
                <text id="推出全台獨有乾拌麵大賞包" font-family="NotoSansTC-Medium, Noto Sans TC" font-size="36" font-weight="400" line-spacing="80" letter-spacing="3" fill="#FFFFFF">
                    <tspan x="521" y="192">推出全台獨有乾拌麵大賞包</tspan>
                </text>
                <text id="711-店到店服務開通" font-family="NotoSansTC-Medium, Noto Sans TC" font-size="36" font-weight="400" line-spacing="80" letter-spacing="3" fill="#FFFFFF">
                    <tspan x="521" y="342">711 店到店服務開通</tspan>
                </text>
                <text id="2021" font-family="NotoSansTC-Medium, Noto Sans TC" font-size="36" font-weight="400" line-spacing="80" letter-spacing="3" fill="#FFBB05">
                    <tspan x="176.92" y="42">2021</tspan>
                </text>
                <circle id="Oval" fill="#FFFFFF" cx="396" cy="25" r="25"></circle>
                <circle id="Oval" fill="#FFFFFF" cx="398" cy="175" r="25"></circle>
                <circle id="Oval" fill="#FFFFFF" cx="396" cy="325" r="25"></circle>
                <path d="M396.5,25 C398.432997,25 400,26.5670034 400,28.5 L400,403.5 L400,403.5 L393,403.5 L393,28.5 C393,26.5670034 394.567003,25 396.5,25 Z" id="Rectangle" fill="#FFFFFF"></path>
            </g>
        </g>
    </g>
</svg>