<?xml version="1.0" encoding="UTF-8"?>
<svg width="373px" height="183px" viewBox="0 0 373 183" version="1.1" xmlns="http://www.w3.org/2000/svg" xmlns:xlink="http://www.w3.org/1999/xlink">
    <title>Group 11</title>
    <g id="Page-1" stroke="none" stroke-width="1" fill="none" fill-rule="evenodd">
        <g id="網站地圖" transform="translate(-10.000000, -1266.000000)">
            <g id="Group-11" transform="translate(10.000000, 1266.000000)">
                <text id="TOUCH-NOODLE-網站上線" font-family="NotoSansTC-Medium, Noto Sans TC" font-size="16" font-weight="400" line-spacing="80" letter-spacing="1.33333333" fill="#FFFFFF">
                    <tspan x="122" y="19">TOUCH NOODLE 網站上線</tspan>
                </text>
                <text id="推出全台獨有乾拌麵大賞包" font-family="NotoSansTC-Medium, Noto Sans TC" font-size="16" font-weight="400" line-spacing="80" letter-spacing="1.33333333" fill="#FFFFFF">
                    <tspan x="122" y="90">推出全台獨有乾拌麵大賞包</tspan>
                </text>
                <text id="711-店到店服務開通" font-family="NotoSansTC-Medium, Noto Sans TC" font-size="16" font-weight="400" line-spacing="80" letter-spacing="1.33333333" fill="#FFFFFF">
                    <tspan x="122" y="156">711 店到店服務開通</tspan>
                </text>
                <text id="2021" font-family="NotoSansTC-Medium, Noto Sans TC" font-size="14" font-weight="400" line-spacing="80" letter-spacing="1.16666667" fill="#FFBB05">
                    <tspan x="32.4133333" y="25">2021</tspan>
                </text>
                <g id="Group-20" transform="translate(84.000000, 2.000000)" fill="#FFFFFF">
                    <circle id="Oval" cx="11" cy="11" r="11"></circle>
                    <circle id="Oval" cx="12" cy="78" r="11"></circle>
                    <circle id="Oval" cx="11" cy="146" r="11"></circle>
                    <path d="M11.5,11 C12.3284271,11 13,11.6715729 13,12.5 L13,181 L13,181 L10,181 L10,12.5 C10,11.6715729 10.6715729,11 11.5,11 Z" id="Rectangle"></path>
                </g>
            </g>
        </g>
    </g>
</svg>