<?xml version="1.0" encoding="UTF-8"?>
<svg width="61px" height="24px" viewBox="0 0 61 24" version="1.1" xmlns="http://www.w3.org/2000/svg" xmlns:xlink="http://www.w3.org/1999/xlink">
    <title>Rectangle</title>
    <g id="Page-1" stroke="none" stroke-width="1" fill="none" fill-rule="evenodd">
        <g id="About-Us-Desktop" transform="translate(-691.000000, -7293.000000)" fill="#FFFFFF">
            <g id="Group-10" transform="translate(469.000000, 7225.000000)">
                <polygon id="Rectangle" points="222 76.0909091 283 68 283 83.9090909 222 92"></polygon>
            </g>
        </g>
    </g>
</svg>