<?xml version="1.0" encoding="UTF-8"?>
<svg width="101px" height="100px" viewBox="0 0 101 100" version="1.1" xmlns="http://www.w3.org/2000/svg" xmlns:xlink="http://www.w3.org/1999/xlink">
    <title>XMLID_89_</title>
    <g id="Page-1" stroke="none" stroke-width="1" fill="none" fill-rule="evenodd">
        <g id="About-Us-Desktop" transform="translate(-868.000000, -4704.000000)" fill="#FFFFFF" fill-rule="nonzero">
            <path d="M958.537805,4735.09995 L958.537805,4722.35056 C958.537805,4718.0423 954.636944,4714.53724 949.842172,4714.53724 L935.66829,4714.53724 L924.587227,4704.57467 C924.179619,4704.20842 923.626794,4704.00234 923.050274,4704.00215 L914.951813,4704 C914.374858,4704 913.822033,4704.20569 913.414425,4704.57174 L902.316623,4714.53744 L888.103176,4714.53744 C883.308404,4714.53744 879.407543,4718.04249 879.407543,4722.35076 L879.407543,4735.12046 L872.254949,4741.53247 C870.13865,4743.43306 868.973,4745.96047 868.973,4748.64923 L868.973,4793.93818 C868.973,4796.64842 870.173867,4799.10981 872.11995,4800.92075 C872.161906,4800.96587 872.205602,4801.01021 872.252775,4801.05279 C872.299732,4801.09498 872.348862,4801.13386 872.398862,4801.17136 C874.414293,4802.92037 877.154069,4803.99978 880.170802,4803.99978 L933.538077,4803.99978 C934.738727,4803.99978 935.711985,4803.12508 935.711985,4802.04645 C935.711985,4800.96782 934.738727,4800.09312 933.538077,4800.09312 L880.170584,4800.09312 C879.073413,4800.09312 878.036676,4799.85892 877.116243,4799.44501 L902.739883,4776.42129 L911.082039,4783.91251 C913.196817,4785.81174 916.00768,4786.85735 918.997456,4786.85735 L919.000935,4786.85735 C921.992015,4786.85657 924.803531,4785.8092 926.917874,4783.90821 L935.225247,4776.43907 L960.829105,4799.44501 C959.908889,4799.85872 958.871935,4800.09312 957.774763,4800.09312 L928.755479,4800.09312 C927.554829,4800.09312 926.58157,4800.96782 926.58157,4802.04645 C926.58157,4803.12508 927.554829,4803.99978 928.755479,4803.99978 L957.775198,4803.99978 C960.791496,4803.99978 963.531273,4802.92057 965.546703,4801.17175 C965.59692,4801.13405 965.646268,4801.09498 965.693225,4801.05279 C965.740616,4801.01021 965.784094,4800.96587 965.826268,4800.92055 C967.772133,4799.10962 968.973,4796.64823 968.973,4793.93818 L968.973,4748.6463 C968.973,4745.96008 967.808872,4743.43423 965.695181,4741.53383 L958.537805,4735.09995 Z M958.538023,4740.62593 L962.61997,4744.29545 C962.996926,4744.63435 963.322795,4745.00666 963.597794,4745.40358 L958.538023,4749.95288 L958.538023,4740.62593 Z M915.850942,4707.90686 L922.148537,4707.90881 L929.521129,4714.53744 L908.467045,4714.53744 L915.850942,4707.90686 Z M875.327117,4744.29701 L879.40776,4740.63882 L879.40776,4749.94644 L874.349293,4745.40416 C874.624292,4745.00744 874.950378,4744.63533 875.327117,4744.29701 Z M874.041902,4796.68261 C873.581468,4795.85576 873.320817,4794.92422 873.320817,4793.93837 L873.320817,4750.00347 L899.664672,4773.65968 L874.041902,4796.68261 Z M923.842881,4781.14679 C922.549405,4782.30961 920.829626,4782.95069 918.999848,4782.95069 C917.168982,4782.95069 915.449421,4782.31098 914.155728,4781.14914 L883.755577,4753.85056 L883.755577,4722.35056 C883.755577,4720.19643 885.706007,4718.4439 888.103393,4718.4439 L949.842389,4718.4439 C952.239776,4718.4439 954.190206,4720.19643 954.190206,4722.35056 L954.190206,4735.65939 C954.169554,4735.81468 954.169554,4735.97133 954.190206,4736.12662 L954.190206,4753.86169 L923.842881,4781.14679 Z M964.624966,4793.93837 C964.624966,4794.92422 964.364314,4795.85576 963.903881,4796.68261 L938.299154,4773.67589 L964.624966,4750.0068 L964.624966,4793.93837 Z" id="XMLID_89_"></path>
        </g>
    </g>
</svg>