<?xml version="1.0" encoding="UTF-8"?>
<svg width="1440px" height="201px" viewBox="0 0 1440 201" version="1.1" xmlns="http://www.w3.org/2000/svg" xmlns:xlink="http://www.w3.org/1999/xlink">
    <title>Group 16</title>
    <g id="Page-1" stroke="none" stroke-width="1" fill="none" fill-rule="evenodd">
        <g id="Group-16">
            <polygon id="Rectangle" fill="#0B346E" transform="translate(720.000000, 100.000000) scale(-1, 1) translate(-720.000000, -100.000000) " points="0.489747098 1.73472348e-16 1440 1.73472348e-16 1440 200 0 177.471717"></polygon>
            <polygon id="Rectangle" fill="#005CAF" transform="translate(720.000000, 100.021383) scale(1, -1) translate(-720.000000, -100.021383) " points="0 0.042766151 1439.51025 0.042766151 1440 200.042766 0 5.68434189e-14"></polygon>
        </g>
    </g>
</svg>