<?xml version="1.0" encoding="UTF-8"?>
<svg width="100px" height="100px" viewBox="0 0 100 100" version="1.1" xmlns="http://www.w3.org/2000/svg" xmlns:xlink="http://www.w3.org/1999/xlink">
    <title>Group 17</title>
    <g id="Page-1" stroke="none" stroke-width="1" fill="none" fill-rule="evenodd">
        <g id="About-Us-Desktop" transform="translate(-868.000000, -2298.000000)" fill-rule="nonzero">
            <g id="Group-3" transform="translate(361.000000, 2151.000000)">
                <g id="Group-17" transform="translate(507.000000, 147.000000)">
                    <path d="M62.3548892,77.3226329 C63.3918067,74.8113806 62.1180127,71.9661515 59.5100401,70.9676895 C58.9119162,70.7387818 58.2739598,70.6212676 57.6300709,70.6214717 L47.4600584,70.6214717 L47.4600584,65.0093562 C47.4596346,59.9962364 43.2395032,55.9322063 38.0333043,55.9322063 L37.2900459,55.9322063 C36.353981,55.9322063 35.5950438,56.6629973 35.5950438,57.5643469 L35.5950438,59.7567198 C35.6105107,65.0079281 33.5337094,70.0649117 29.7926279,73.8857528 L25.4250313,73.8857528 L25.4250313,72.2536122 C25.4250313,71.3522626 24.6660941,70.6214717 23.7300292,70.6214717 L-3.61292916e-13,70.6214717 L-3.61292916e-13,73.8857528 L22.0350271,73.8857528 L22.0350271,96.7357211 L-3.61292916e-13,96.7357211 L-3.61292916e-13,100.000003 L23.7300292,100.000003 C24.6660941,100.000003 25.4250313,99.2692113 25.4250313,98.3678617 L25.4250313,96.7357211 L30.1155258,96.7357211 C34.7163971,98.8781096 39.7596639,99.9938817 44.8703071,100.000003 L50.8500626,100.000003 C53.6574098,100.000818 55.9342213,97.8100776 55.9350688,95.1068448 C55.9352807,94.5496728 55.8367587,93.9965811 55.6435285,93.4714399 L55.9350688,93.4714399 C58.742416,93.472256 61.0192276,91.2815153 61.0200751,88.5782824 C61.0202869,88.0211104 60.921765,87.4680188 60.7285347,86.9428776 L61.0200751,86.9428776 C63.8284817,86.9410414 66.1035982,84.7474444 66.1016925,82.0431915 C66.1002082,79.8365374 64.5658076,77.9034709 62.3548892,77.3226329 L62.3548892,77.3226329 Z M61.0169492,83.6154561 L49.1525424,83.6154561 L49.1525424,86.8641352 L55.9322034,86.8641352 C56.8682203,86.8641352 57.6271186,87.5914332 57.6271186,88.4884747 C57.6271186,89.3855162 56.8682203,90.1128143 55.9322034,90.1128143 L47.4576271,90.1128143 L47.4576271,93.3614934 L50.8474576,93.3614934 C51.7834746,93.3614934 52.5423729,94.0887914 52.5423729,94.9858329 C52.5423729,95.8828744 51.7834746,96.6101724 50.8474576,96.6101724 L44.8680085,96.6101724 C40.1470339,96.6046903 35.4915254,95.5515091 31.2663136,93.5330642 C31.0309322,93.4201726 30.7716102,93.3614934 30.5084746,93.3614934 L25.4237288,93.3614934 L25.4237288,77.1180979 L30.5084746,77.1180979 C30.9580508,77.1180979 31.3891949,76.9469331 31.7069915,76.6423694 C36.3809322,72.1874152 39.0010593,66.125583 38.9830508,59.8079174 L38.9830508,59.3220369 C41.9122881,59.7709637 44.0673729,62.1924479 44.0677966,65.0354482 L44.0677966,70.6207397 L44.0191604,71.7860155 C43.973098,72.8896241 44.8304087,73.8216166 45.9340173,73.867679 C45.9618033,73.8688387 45.9896104,73.8694188 46.0174206,73.8694188 L57.6271186,73.8694188 L57.6271186,73.8694188 C58.5631356,73.8694188 59.3220339,74.5967168 59.3220339,75.4937583 C59.3220339,76.3907999 58.5631356,77.1180979 57.6271186,77.1180979 L50.8474576,77.1180979 L50.8474576,80.366777 L61.0169492,80.366777 C61.9529661,80.366777 62.7118644,81.094075 62.7118644,81.9911165 C62.7118644,82.888158 61.9529661,83.6154561 61.0169492,83.6154561 Z" id="Shape" fill="#F7F4F0"></path>
                    <path d="M99.9999988,3.18555767e-06 L76.2699696,3.18555767e-06 C75.3339047,3.18555767e-06 74.5749675,0.730794363 74.5749675,1.632144 L74.5749675,3.26428459 L69.884473,3.26428459 C65.2836017,1.12189605 60.2403349,0.00612394069 55.1296917,3.18555767e-06 L49.1499362,3.18555767e-06 C46.342589,-0.000812656816 44.0657775,2.18992805 44.06493,4.8931609 C44.0647181,5.4503329 44.1632401,6.00342454 44.3564703,6.52856577 L44.06493,6.52856577 C41.2575828,6.5277497 38.9807712,8.71849041 38.9799237,11.4217233 C38.9797119,11.9788953 39.0782339,12.5319869 39.2714641,13.0571281 L38.9799237,13.0571281 C36.1715172,13.0589643 33.8964006,15.2525612 33.8983063,17.9568142 C33.8997906,20.1634683 35.4341912,22.0965348 37.6451096,22.6773728 C36.6081921,25.1886251 37.8819861,28.0338542 40.4899587,29.0323162 C41.0880826,29.2612239 41.726039,29.378738 42.3699279,29.378534 L52.5399404,29.378534 L52.5399404,34.9906494 C52.5403642,40.0037693 56.7604956,44.0677993 61.9666945,44.0677993 L62.7099529,44.0677993 C63.6460178,44.0677993 64.404955,43.3370084 64.404955,42.4356588 L64.404955,40.2432859 C64.3894881,34.9920776 66.4662894,29.935094 70.2073709,26.1142529 L74.5749675,26.1142529 L74.5749675,27.7463934 C74.5749675,28.6477431 75.3339047,29.378534 76.2699696,29.378534 L99.9999988,29.378534 L99.9999988,26.1142529 L77.9649717,26.1142529 L77.9649717,3.26428459 L99.9999988,3.26428459 L99.9999988,3.18555767e-06 Z M69.4915254,22.881908 C69.0419492,22.881908 68.6108051,23.0530728 68.2930085,23.3576365 C63.6190678,27.8125907 60.9989407,33.8744229 61.0169492,40.1920885 L61.0169492,40.6779691 C58.0877119,40.2290422 55.9326271,37.807558 55.9322034,34.9645577 L55.9322034,29.3792662 L55.9808396,28.2139904 C56.026902,27.1103818 55.1695913,26.1783893 54.0659827,26.1323269 C54.0381967,26.1311672 54.0103896,26.1305871 53.9825794,26.1305871 L42.3728814,26.1305871 L42.3728814,26.1305871 C41.4368644,26.1305871 40.6779661,25.4032891 40.6779661,24.5062476 C40.6779661,23.6092061 41.4368644,22.881908 42.3728814,22.881908 L49.1525424,22.881908 L49.1525424,19.6332289 L38.9830508,19.6332289 C38.0470339,19.6332289 37.2881356,18.9059309 37.2881356,18.0088894 C37.2881356,17.1118479 38.0470339,16.3845498 38.9830508,16.3845498 L50.8474576,16.3845498 L50.8474576,13.1358707 L44.0677966,13.1358707 C43.1317797,13.1358707 42.3728814,12.4085727 42.3728814,11.5115312 C42.3728814,10.6144897 43.1317797,9.88719165 44.0677966,9.88719165 L52.5423729,9.88719165 L52.5423729,6.63851256 L49.1525424,6.63851256 C48.2165254,6.63851256 47.4576271,5.91121453 47.4576271,5.01417301 C47.4576271,4.1171315 48.2165254,3.38983347 49.1525424,3.38983347 L55.1319915,3.38983347 C59.8529661,3.39531561 64.5084746,4.44849677 68.7336864,6.4669417 C68.9690678,6.57983329 69.2283898,6.63851256 69.4915254,6.63851256 L74.5762712,6.63851256 L74.5762712,22.881908 L69.4915254,22.881908 Z" id="Shape" fill="#F7F4F0"></path>
                    <path d="M91.5254237,67.7966131 C91.5233051,69.6677996 90.0067797,71.184325 88.1355932,71.1864436 L84.7457627,71.1864436 C84.3493644,71.1864436 83.9654661,71.3254267 83.6608051,71.5792402 L76.2711864,77.7370792 L76.2711864,72.8813589 C76.2711864,71.9453419 75.5122881,71.1864436 74.5762712,71.1864436 L66.1016949,71.1864436 L66.1016949,74.5762741 L72.8813559,74.5762741 L72.8813559,81.3559352 C72.8813559,82.2919521 73.6402542,83.0508504 74.5762712,83.0508504 C74.9726695,83.0508504 75.3565678,82.9118674 75.6612288,82.6580538 L85.3601695,74.5762741 L88.1355932,74.5762741 C91.878178,74.5720369 94.9110169,71.5391979 94.9152542,67.7966131 L94.9152542,32.2033928 L91.5254237,32.2033928 L91.5254237,67.7966131 Z" id="Path" fill="#FFFFFF"></path>
                    <path d="M10.1694915,32.2033928 C10.1716102,30.3322063 11.6881356,28.8156809 13.559322,28.8135623 L16.9491525,28.8135623 C17.3455508,28.8135623 17.7294492,28.6745792 18.0341102,28.4207657 L25.4237288,22.2629267 L25.4237288,27.118647 C25.4237288,28.054664 26.1826271,28.8135623 27.1186441,28.8135623 L35.5932203,28.8135623 L35.5932203,25.4237318 L28.8135593,25.4237318 L28.8135593,18.6440708 C28.8135593,17.7080538 28.054661,16.9491555 27.1186441,16.9491555 C26.7222458,16.9491555 26.3383475,17.0881386 26.0336864,17.3419521 L16.3347458,25.4237318 L13.559322,25.4237318 C9.81673729,25.4279691 6.78389831,28.460808 6.77966102,32.2033928 L6.77966102,67.7966131 L10.1694915,67.7966131 L10.1694915,32.2033928 Z" id="Path" fill="#FFFFFF"></path>
                </g>
            </g>
        </g>
    </g>
</svg>