<?xml version="1.0" encoding="UTF-8"?>
<svg width="60px" height="60px" viewBox="0 0 60 60" version="1.1" xmlns="http://www.w3.org/2000/svg" xmlns:xlink="http://www.w3.org/1999/xlink">
    <title>Group 17</title>
    <g id="Page-1" stroke="none" stroke-width="1" fill="none" fill-rule="evenodd">
        <g id="Landing-Page" transform="translate(-158.000000, -1593.000000)" fill-rule="nonzero">
            <g id="Group-17" transform="translate(158.000000, 1592.999998)">
                <path d="M36.7893846,46.1057515 C37.401166,44.5671266 36.6496275,42.8238766 35.1109237,42.2121266 C34.7580306,42.0718766 34.3816363,41.9998766 34.0017418,42.0000017 L28.0014345,42.0000017 L28.0014345,38.5615017 C28.0011844,35.4900017 25.5113069,33.0000017 22.4396495,33.0000017 L22.0011271,33.0000017 C21.4488488,33.0000017 21.0010758,33.4477517 21.0010758,34.0000017 L21.0010758,35.3432517 C21.0102013,38.5606267 19.7848885,41.6590016 17.5776505,44.0000017 L15.0007685,44.0000017 L15.0007685,43.0000017 C15.0007685,42.4477516 14.5529955,42.0000017 14.0007172,42.0000017 L7.10542736e-15,42.0000017 L7.10542736e-15,44.0000017 L13.000666,44.0000017 L13.000666,58.0000017 L7.10542736e-15,58.0000017 L7.10542736e-15,60.0000017 L14.0007172,60.0000017 C14.5529955,60.0000017 15.0007685,59.5522513 15.0007685,59.0000017 L15.0007685,58.0000017 L17.7681602,58.0000017 C20.4826743,59.3126263 23.4582017,59.9962513 26.4734812,60.0000017 L30.0015369,60.0000017 C31.6578718,60.0005013 33.0011906,58.6582513 33.0016906,57.0020014 C33.0018156,56.6606264 32.9436876,56.3217514 32.8296818,56.0000017 L33.0016906,56.0000017 C34.6580255,56.0005014 36.0013443,54.6582514 36.0018443,53.0020014 C36.0019693,52.6606264 35.9438413,52.3217514 35.8298355,52.0000017 L36.0018443,52.0000017 C37.6588042,51.9988765 39.0011229,50.6548765 39,48.9980015 C38.9991228,47.6460015 38.0938265,46.4616265 36.7893846,46.1057515 L36.7893846,46.1057515 Z M36,49.9846244 L29,49.9846244 L29,51.9884687 L33,51.9884687 C33.55225,51.9884687 34,52.4370794 34,52.9903909 C34,53.5437024 33.55225,53.9923131 33,53.9923131 L28,53.9923131 L28,55.9961574 L30,55.9961574 C30.55225,55.9961574 31,56.4447681 31,56.9980796 C31,57.5513911 30.55225,58.0000017 30,58.0000017 L26.472125,58.0000017 C23.68675,57.9966203 20.94,57.346999 18.447125,56.1019854 C18.30825,56.0323519 18.15525,55.9961574 18,55.9961574 L15,55.9961574 L15,45.9769358 L18,45.9769358 C18.26525,45.9769358 18.519625,45.8713582 18.707125,45.6834978 C21.46475,42.935601 23.010625,39.1965527 23,35.2997017 L23,35.0000017 C24.72825,35.276908 25.99975,36.7705235 26,38.5241377 L26,41.9692471 C25.9575459,43.0326386 26.7851793,43.9291035 27.8485708,43.9715576 C27.8741813,43.97258 27.8998097,43.9730914 27.9254406,43.9730914 L34,43.9730914 L34,43.9730914 C34.55225,43.9730914 35,44.4217021 35,44.9750136 C35,45.5283251 34.55225,45.9769358 34,45.9769358 L30,45.9769358 L30,47.9807801 L36,47.9807801 C36.55225,47.9807801 37,48.4293907 37,48.9827023 C37,49.5360138 36.55225,49.9846244 36,49.9846244 Z" id="Shape" fill="#666666"></path>
                <path d="M60.0000007,1.88464823e-06 L45.9992821,1.88464823e-06 C45.4470038,1.88464823e-06 44.9992308,0.447752017 44.9992308,1.00000188 L44.9992308,2.00000188 L42.2318391,2.00000188 C39.517325,0.687377014 36.5417976,0.00375202424 33.5265181,1.88464823e-06 L29.9984624,1.88464823e-06 C28.3421275,-0.000497975699 26.9988087,1.341752 26.9983087,2.99800198 C26.9981837,3.33937697 27.0563117,3.67825197 27.1703175,4.00000188 L26.9983087,4.00000188 C25.3419738,3.99950196 23.998655,5.34175194 23.998155,6.99800192 C23.99803,7.33937691 24.056158,7.67825191 24.1701638,8.00000188 L23.998155,8.00000188 C22.3411951,8.0011269 20.9988764,9.34512688 21.0000007,11.0020019 C21.0008765,12.3540018 21.9061728,13.5383768 23.2106147,13.8942518 C22.5988333,15.4328768 23.3503718,17.1761268 24.8890756,17.7878767 C25.2419687,17.9281267 25.618363,18.0001267 25.9982575,18.0000019 L31.9985648,18.0000019 L31.9985648,21.4385017 C31.9988149,24.5100016 34.4886924,27.0000019 37.5603498,27.0000019 L37.9988722,27.0000019 C38.5511505,27.0000019 38.9989235,26.5522516 38.9989235,26.0000019 L38.9989235,24.6567516 C38.989798,21.4393767 40.2151108,18.3410017 42.4223488,16.0000019 L44.9992308,16.0000019 L44.9992308,17.0000019 C44.9992308,17.5522518 45.4470038,18.0000019 45.9992821,18.0000019 L60.0000007,18.0000019 L60.0000007,16.0000019 L46.9993333,16.0000019 L46.9993333,2.00000188 L60.0000007,2.00000188 L60.0000007,1.88464823e-06 Z M42,14.0230677 C41.73475,14.0230677 41.480375,14.1286453 41.292875,14.3165057 C38.53525,17.0644025 36.989375,20.8034508 37,24.7003018 L37,25.0000017 C35.27175,24.7230955 34.00025,23.22948 34,21.4758658 L34,18.0307564 C34.0424541,16.9673649 33.2148207,16.0709 32.1514292,16.0284459 C32.1258187,16.0274234 32.1001903,16.0269121 32.0745594,16.0269121 L26,16.0269121 L26,16.0269121 C25.44775,16.0269121 25,15.5783014 25,15.0249899 C25,14.4716784 25.44775,14.0230677 26,14.0230677 L30,14.0230677 L30,12.0192234 L24,12.0192234 C23.44775,12.0192234 23,11.5706128 23,11.0173012 C23,10.4639897 23.44775,10.0153791 24,10.0153791 L31,10.0153791 L31,8.01153474 L27,8.01153474 C26.44775,8.01153474 26,7.56292409 26,7.00961257 C26,6.45630106 26.44775,6.00769041 27,6.00769041 L32,6.00769041 L32,4.00384608 L30,4.00384608 C29.44775,4.00384608 29,3.55523543 29,3.00192391 C29,2.44861239 29.44775,2.00000175 30,2.00000175 L33.527875,2.00000175 C36.31325,2.00338323 39.06,2.65300452 41.552875,3.89801805 C41.69175,3.96765164 41.84475,4.00384608 42,4.00384608 L45,4.00384608 L45,14.0230677 L42,14.0230677 Z" id="Shape" fill="#666666"></path>
                <path d="M54,41.7000017 C53.99875,42.8408017 53.104,43.7653767 52,43.7666684 L50,43.7666684 C49.766125,43.7666684 49.539625,43.8514017 49.359875,44.0061434 L45,47.7603726 L45,44.8000017 C45,44.2293434 44.55225,43.7666684 44,43.7666684 L39,43.7666684 L39,45.8333351 L43,45.8333351 L43,49.9666684 C43,50.5373267 43.44775,51.0000017 44,51.0000017 C44.233875,51.0000017 44.460375,50.9152684 44.640125,50.7605267 L50.3625,45.8333351 L52,45.8333351 C54.208125,45.8307517 55.9975,43.9817309 56,41.7000017 L56,20.0000017 L54,20.0000017 L54,41.7000017 Z" id="Path" fill="#333333"></path>
                <path d="M6,19.3000017 C6.00125,18.1592017 6.896,17.2346267 8,17.2333351 L10,17.2333351 C10.233875,17.2333351 10.460375,17.1486017 10.640125,16.9938601 L15,13.2396309 L15,16.2000017 C15,16.7706601 15.44775,17.2333351 16,17.2333351 L21,17.2333351 L21,15.1666684 L17,15.1666684 L17,11.0333351 C17,10.4626767 16.55225,10.0000017 16,10.0000017 C15.766125,10.0000017 15.539625,10.0847351 15.359875,10.2394767 L9.6375,15.1666684 L8,15.1666684 C5.791875,15.1692517 4.0025,17.0182726 4,19.3000017 L4,41.0000017 L6,41.0000017 L6,19.3000017 Z" id="Path" fill="#333333"></path>
            </g>
        </g>
    </g>
</svg>