<?xml version="1.0" encoding="UTF-8"?>
<svg width="12px" height="10px" viewBox="0 0 12 10" version="1.1" xmlns="http://www.w3.org/2000/svg" xmlns:xlink="http://www.w3.org/1999/xlink">
    <title>Shape</title>
    <g id="Page-1" stroke="none" stroke-width="1" fill="none" fill-rule="evenodd">
        <g id="商品已為你加入購物車" transform="translate(-74.000000, -28.000000)" fill="#FFFFFF">
            <g id="Group-4" transform="translate(74.000000, 24.000000)">
                <g id="Group-3" transform="translate(0.000000, 4.000000)">
                    <polygon id="Shape" points="3.81818182 7.91044776 0.954545455 4.7761194 0 5.82089552 3.81818182 10 12 1.04477612 11.0454545 0"></polygon>
                </g>
            </g>
        </g>
    </g>
</svg>