<?xml version="1.0" encoding="UTF-8"?>
<svg width="55px" height="77px" viewBox="0 0 55 77" version="1.1" xmlns="http://www.w3.org/2000/svg" xmlns:xlink="http://www.w3.org/1999/xlink">
    <title>Group 32</title>
    <g id="Page-1" stroke="none" stroke-width="1" fill="none" fill-rule="evenodd">
        <g id="購物車" transform="translate(-160.000000, -134.000000)">
            <g id="Group-32" transform="translate(160.000000, 134.097687)">
                <rect id="Rectangle" fill="#D06C4C" transform="translate(27.179400, 8.015192) rotate(-10.000000) translate(-27.179400, -8.015192) " x="25.6794005" y="3.01519225" width="3" height="10" rx="1.5"></rect>
                <rect id="Rectangle" fill="#D06C4C" transform="translate(48.366025, 11.866415) rotate(40.000000) translate(-48.366025, -11.866415) " x="46.8660254" y="6.86641467" width="3" height="10" rx="1.5"></rect>
                <rect id="Rectangle" fill="#D06C4C" transform="translate(38.353049, 7.000000) rotate(10.000000) translate(-38.353049, -7.000000) " x="36.8530486" y="1" width="3" height="12" rx="1.5"></rect>
                <rect id="Rectangle" fill="#D06C4C" transform="translate(15.730708, 11.309624) rotate(-25.000000) translate(-15.730708, -11.309624) " x="14.2307082" y="3.80962415" width="3" height="15" rx="1.5"></rect>
                <g id="shopping-cart" transform="translate(0.000000, 19.902313)" fill="#666666" fill-rule="nonzero">
                    <path d="M49.5530047,8.72187544 L10.0229701,8.72187544 L9.62510202,5.73612279 C9.1963028,2.51965288 6.95908944,0 4.53162822,0 L1.62706426,0 C0.728365513,0 0,0.729049574 0,1.62859235 C0,2.52813514 0.728365513,3.25718471 1.62706426,3.25718471 L4.53162822,3.25718471 C5.05364467,3.25718471 6.15911617,4.36199799 6.39936241,6.16659709 L11.0568339,41.1312875 C11.2619117,42.6725126 12.052987,44.1153436 13.2843018,45.194286 C14.1974069,45.9945865 15.2766081,46.5268478 16.4070787,46.7495069 C15.9465009,47.597308 15.6846452,48.5685259 15.6846452,49.5995435 C15.6846452,52.9025324 18.3693013,55.5892857 21.6687673,55.5892857 C24.9682333,55.5892857 27.6528893,52.9025324 27.6528893,49.5995435 C27.6528893,48.6156023 27.4130668,47.6872199 26.991047,46.8674103 L35.5170333,46.8674103 C35.0950135,47.6872199 34.8551909,48.6156023 34.8551909,49.5995435 C34.8551909,52.9025324 37.5398469,55.5892857 40.839313,55.5892857 C44.138779,55.5892857 46.823435,52.9025324 46.823435,49.5995435 C46.823435,48.6156023 46.5836125,47.6872199 46.1615927,46.8674103 L50.4245859,46.8674103 C51.3228609,46.8674103 52.0516501,46.1379366 52.0516501,45.2388179 C52.0516501,44.339275 51.3228609,43.6102256 50.4245859,43.6102256 L17.6023778,43.6102256 C16.0126004,43.6102256 14.4923123,42.2776637 14.2821498,40.7003891 L13.9419069,38.1451106 L26.6054667,38.1451106 L37.0614731,38.1451106 L46.0675281,38.1451106 C47.6208659,38.1451106 49.1542893,37.5509289 50.385604,36.4724106 C51.6169188,35.3934681 52.4079941,33.950213 52.613072,32.4089879 L54.9468923,14.8888966 C55.1629867,13.266666 54.7151204,11.7250168 53.6854938,10.5476802 C52.6558672,9.37034367 51.1881196,8.72187544 49.5530047,8.72187544 Z M21.6687673,52.332101 C20.1637328,52.332101 18.9387737,51.1064157 18.9387737,49.5995435 C18.9387737,48.0930956 20.1637328,46.8674103 21.6687673,46.8674103 C23.1742254,46.8674103 24.3987608,48.0930956 24.3987608,49.5995435 C24.3987608,51.1064157 23.1742254,52.332101 21.6687673,52.332101 Z M40.839313,52.332101 C39.3338548,52.332101 38.1093194,51.1064157 38.1093194,49.5995435 C38.1093194,48.0930956 39.3338548,46.8674103 40.839313,46.8674103 C42.3447711,46.8674103 43.5693065,48.0930956 43.5693065,49.5995435 C43.5693065,51.1064157 42.3447711,52.332101 40.839313,52.332101 Z M51.7211526,14.4579982 L50.7427955,21.8049007 L39.6719791,21.8049007 L40.3261945,11.9790601 L49.5530047,11.9790601 C50.2364565,11.9790601 50.8343179,12.2326795 51.2368468,12.6932658 C51.6397994,13.1538521 51.8118276,13.7802664 51.7211526,14.4579982 Z M28.1304158,34.8879259 L27.4757765,25.0620854 L36.1937055,25.0620854 L35.5390664,34.8879259 L28.1304158,34.8879259 Z M27.2588346,21.8049007 L26.6046192,11.9790601 L37.0648629,11.9790601 L36.4106474,21.8049007 L27.2588346,21.8049007 Z M23.3432876,11.9790601 L23.997503,21.8049007 L11.7652848,21.8049007 L10.4564302,11.9790601 L23.3432876,11.9790601 Z M12.1991686,25.0620854 L24.2144449,25.0620854 L24.869084,34.8879259 L13.5080231,34.8879259 L12.1991686,25.0620854 Z M46.0675281,34.8879259 L38.8003981,34.8879259 L39.4550372,25.0620854 L50.3089117,25.0620854 L49.3877561,31.9785136 C49.1775936,33.5557883 47.6568817,34.8879259 46.0675281,34.8879259 Z" id="Shape"></path>
                </g>
            </g>
        </g>
    </g>
</svg>