<?xml version="1.0" encoding="UTF-8"?>
<svg width="20px" height="37px" viewBox="0 0 20 37" version="1.1" xmlns="http://www.w3.org/2000/svg" xmlns:xlink="http://www.w3.org/1999/xlink">
    <title>Group 28</title>
    <g id="Page-1" stroke="none" stroke-width="1" fill="none" fill-rule="evenodd">
        <g id="Landing-Page" transform="translate(-274.000000, -4707.000000)" fill-rule="nonzero" stroke="#3F3F3F" stroke-width="1.5">
            <g id="Group-6" transform="translate(0.000000, 4346.000000)">
                <g id="Group-28" transform="translate(275.000000, 362.000000)">
                    <path d="M18,5.81145833 L18,0.246458333 C17.4330472,0.170625 15.4832097,0 13.212399,0 C8.47429381,0 5.22856429,2.89770833 5.22856429,8.22354167 L5.22856429,13.125 L0,13.125 L0,19.34625 L5.22856429,19.34625 L5.22856429,35 L11.6390301,35 L11.6390301,19.3477083 L16.656112,19.3477083 L17.4525456,13.1264583 L11.6375302,13.1264583 L11.6375302,8.84041667 C11.6390301,7.04229167 12.1369886,5.81145833 14.7137739,5.81145833 L18,5.81145833 Z" id="Path"></path>
                </g>
            </g>
        </g>
    </g>
</svg>