<?xml version="1.0" encoding="UTF-8"?>
<svg width="37px" height="31px" viewBox="0 0 37 31" version="1.1" xmlns="http://www.w3.org/2000/svg" xmlns:xlink="http://www.w3.org/1999/xlink">
    <title>Shape</title>
    <g id="Page-1" stroke="none" stroke-width="1" fill="none" fill-rule="evenodd">
        <g id="Group-12" transform="translate(-50.000000, -30.000000)" fill="#666666">
            <path d="M87,61 L87,58 L50,58 L50,61 L87,61 Z M87,47 L87,44 L50,44 L50,47 L87,47 Z M50,33 L87,33 L87,30 L50,30 L50,33 Z" id="Shape"></path>
        </g>
    </g>
</svg>