<?xml version="1.0" encoding="UTF-8"?>
<svg width="27px" height="26px" viewBox="0 0 27 26" version="1.1" xmlns="http://www.w3.org/2000/svg" xmlns:xlink="http://www.w3.org/1999/xlink">
    <title>Group 15</title>
    <defs>
        <filter id="filter-1">
            <feColorMatrix in="SourceGraphic" type="matrix" values="0 0 0 0 0.313725 0 0 0 0 0.313725 0 0 0 0 0.313725 0 0 0 1.000000 0"></feColorMatrix>
        </filter>
    </defs>
    <g id="Page-1" stroke="none" stroke-width="1" fill="none" fill-rule="evenodd">
        <g id="Group-15" transform="translate(-329.000000, -20.000000)" filter="url(#filter-1)">
            <g transform="translate(330.000000, 21.000000)">
                <path d="M1.827589,6.89376696 L0.118187291,22.893767 C0.0595164024,23.4429265 0.457135996,23.9356704 1.00629551,23.9943413 C1.04158104,23.9981111 1.07704222,24 1.11252855,24 L23.8874714,24 C24.4397562,24 24.8874714,23.5522847 24.8874714,23 C24.8874714,22.9645137 24.8855825,22.9290525 24.8818127,22.893767 L23.172411,6.89376696 C23.1181086,6.38549625 22.689233,6 22.1780697,6 L2.82193026,6 C2.31076701,6 1.88189143,6.38549625 1.827589,6.89376696 Z" id="Path-15" stroke="#979797" stroke-width="2"></path>
                <path d="M8.82653061,12 C6.98979592,4 8.21428571,-8.8817842e-15 12.5,-8.8817842e-15 C16.7857143,-8.8817842e-15 18.0102041,4 16.1734694,12" id="Path-16" stroke="#7C7C7C" stroke-width="2"></path>
            </g>
        </g>
    </g>
</svg>