<?xml version="1.0" encoding="UTF-8"?>
<svg width="60px" height="60px" viewBox="0 0 60 60" version="1.1" xmlns="http://www.w3.org/2000/svg" xmlns:xlink="http://www.w3.org/1999/xlink">
    <title>star</title>
    <g id="Page-1" stroke="none" stroke-width="1" fill="none" fill-rule="evenodd">
        <g id="star" fill="#FFBB05" fill-rule="nonzero">
            <path d="M59.8434744,22.6732799 C59.4507039,21.405506 58.3731029,20.5050714 57.0982009,20.3851726 L39.7805931,18.7443275 L32.9327449,2.01917097 C32.4278198,0.793433405 31.2778903,0 30.0002418,0 C28.7225932,0 27.5726638,0.793433405 27.0677385,2.02203714 L20.2198903,18.7443275 L2.8995359,20.3851726 C1.62692278,20.5079374 0.552068462,21.405506 0.157009073,22.6732799 C-0.238050317,23.9410537 0.1267959,25.3315924 1.08949562,26.2081429 L14.1795564,38.1875069 L10.3196021,55.9301307 C10.0371553,57.2346863 10.5223961,58.5831888 11.5597131,59.3656354 C12.1172825,59.7859975 12.769611,60 13.4274329,60 C13.9946155,60 14.5572203,59.8404535 15.0621455,59.5251819 L30.0002418,50.2089072 L44.9328447,59.5251819 C46.0255524,60.2111365 47.4029957,60.1485598 48.4380237,59.3656354 C49.4757984,58.5808002 49.9605815,57.2318201 49.6781347,55.9301307 L45.8181804,38.1875069 L58.9082412,26.2105313 C59.8709409,25.3315924 60.2385338,23.9434421 59.8434744,22.6732799 Z" id="Path"></path>
        </g>
    </g>
</svg>