<?xml version="1.0" encoding="UTF-8"?>
<svg width="82px" height="110px" viewBox="0 0 82 110" version="1.1" xmlns="http://www.w3.org/2000/svg" xmlns:xlink="http://www.w3.org/1999/xlink">
    <title>Group 12</title>
    <g id="Page-1" stroke="none" stroke-width="1" fill="none" fill-rule="evenodd">
        <g id="Landing-Page" transform="translate(-147.000000, -1397.000000)">
            <g id="Group-12" transform="translate(147.000000, 1397.000000)">
                <g id="Group" transform="translate(0.000000, -0.000000)">
                    <path d="M31,57 L31,65.5968758 C31,67.1157944 30.3095514,68.5523589 29.1234752,69.5012198 L21,76 L21,76 C27.5,82 34.1666667,85 41,85 C47.8333333,85 54.5,81.6666667 61,75 L53.1326883,69.4928818 C51.7960549,68.5572384 51,67.0282912 51,65.3967222 L51,57 L51,57 L31,57 Z" id="Path-18" fill="#FFD2BD"></path>
                    <path d="M0.744212901,89.1620388 L0.0369889832,108.964308 C0.0172770952,109.516241 0.448727443,109.979651 1.00066031,109.999363 C1.01255275,109.999788 1.02445182,110 1.03635184,110 L80.9636482,110 C81.5159329,110 81.9636482,109.552285 81.9636482,109 C81.9636482,108.9881 81.9634357,108.976201 81.963011,108.964308 L81.2437658,88.8254428 C81.0967623,84.7093449 78.4411318,81.1043961 74.5536415,79.7437745 L61,75 L61,75 C54.1609195,81.5625 47.3275862,84.84375 40.5,84.84375 C33.6724138,84.84375 27.1724138,81.8958333 21,76 L7.86436259,79.9406912 C3.7606352,81.1718094 0.897130308,84.8803514 0.744212901,89.1620388 Z" id="Path-9" fill="#5E756E"></path>
                    <path d="M41.0003078,60.999351 C56.0006156,60.9987019 66,46 66,38 C66,38 69,37 69,35 C69,33 66,32 66,32 C66,21 59,5.68434189e-14 41.0003078,5.68434189e-14 C23.0006156,5.68434189e-14 17,22 17,32 C17,32 14,33 14,35 C14,37 17,38 17,38 C17,46 26,61 41.0003078,60.999351 Z" id="Oval" fill="#FFD2BD"></path>
                    <path d="M41,51 C42,51 43,50 43,49 C43,48 42,47 41,47 C40,47 39,48 39,49 C39,50 40,51 41,51 Z" id="Oval" fill="#263645"></path>
                    <path d="M30,25 C30,18 34,12 41,12 C48,12 52,18 52,25 C52,29.2137802 49.0104788,32.3404619 43.0314365,34.3800449 C41.8166003,34.7944523 41,35.9358174 41,37.2193907 L41,44 L41,44" id="Path-5" stroke="#263645" stroke-width="4"></path>
                </g>
            </g>
        </g>
    </g>
</svg>