<?xml version="1.0" encoding="UTF-8"?>
<svg width="40px" height="41px" viewBox="0 0 40 41" version="1.1" xmlns="http://www.w3.org/2000/svg" xmlns:xlink="http://www.w3.org/1999/xlink">
    <title>Group 3</title>
    <g id="Page-1" stroke="none" stroke-width="1" fill="none" fill-rule="evenodd">
        <g id="Shopping-Cart" transform="translate(-445.000000, -550.000000)">
            <g id="Group-11" transform="translate(350.000000, 445.000000)">
                <g id="Group-3" transform="translate(95.000000, 105.375000)">
                    <circle id="Oval" fill="#D06C4C" cx="20" cy="20" r="20"></circle>
                    <polygon id="Shape" fill="#FFFFF0" points="19.4047619 10 19.4047619 19.4047619 10 19.4047619 10 20.5952381 19.4047619 20.5952381 19.4047619 30 20.5952381 30 20.5952381 20.5952381 30 20.5952381 30 19.4047619 20.5952381 19.4047619 20.5952381 10"></polygon>
                </g>
            </g>
        </g>
    </g>
</svg>