<?xml version="1.0" encoding="UTF-8"?>
<svg width="198px" height="40px" viewBox="0 0 198 40" version="1.1" xmlns="http://www.w3.org/2000/svg" xmlns:xlink="http://www.w3.org/1999/xlink">
    <title>Group</title>
    <g id="Page-1" stroke="none" stroke-width="1" fill="none" fill-rule="evenodd">
        <g id="Landing-Page-跳出Hamburger-Desktop" transform="translate(-50.000000, -30.000000)" fill="#D06C4C" fill-rule="nonzero">
            <g id="Group" transform="translate(50.000000, 30.000000)">
                <path d="M2.49030506,3 C1.11337081,3 0,4.04808655 0,5.33910706 C0,6.63244122 1.11337081,7.67821411 2.49030506,7.67821411 L17.0084633,7.67821411 L17.0084633,37.6608928 C17.0084633,38.9542269 18.1242973,40 19.4987685,40 C20.8757027,40 21.9890734,38.9542269 21.9890734,37.6608928 L21.9890734,7.67821411 L36.5096949,7.67821411 C37.8841661,7.67821411 39,6.63244122 39,5.33910706 C39,4.04808655 37.8841661,3 36.5096949,3 L2.49030506,3 Z" id="Fill-98"></path>
                <path d="M154.613974,14.7626313 C155.244139,15.8893822 156.671277,16.2919585 157.801867,15.6603302 C158.930142,15.0310154 159.333262,13.6058029 158.700779,12.4767384 C155.424848,6.63012755 149.227453,3 142.525,3 C132.310302,3 124,11.299087 124,21.5 C124,31.700913 132.310302,40 142.525,40 C149.146365,40 155.306692,36.4346548 158.603475,30.6921586 C159.24754,29.5723487 158.860638,28.1425087 157.736998,27.4993122 C156.615675,26.8561155 155.183902,27.2448099 154.542154,28.3646198 C152.077097,32.6541396 147.471331,35.3217858 142.525,35.3217858 C134.893515,35.3217858 128.684536,29.1211856 128.684536,21.5 C128.684536,13.8788144 134.893515,7.67821411 142.525,7.67821411 C147.533884,7.67821411 152.165134,10.3921336 154.613974,14.7626313 Z" id="Fill-99"></path>
                <path d="M114.205767,5.35545622 L114.205767,22.7988792 C114.205767,29.685851 108.057674,35.2890876 100.498814,35.2890876 C92.942326,35.2890876 86.7942325,29.685851 86.7942325,22.7988792 L86.7942325,5.35545622 C86.7942325,4.05541212 85.7225246,3 84.3971162,3 C83.0717075,3 82,4.05541212 82,5.35545622 L82,22.7988792 C82,32.2836093 90.2986221,40 100.498814,40 C110.701378,40 119,32.2836093 119,22.7988792 L119,5.35545622 C119,4.05541212 117.925921,3 116.602883,3 C115.277475,3 114.205767,4.05541212 114.205767,5.35545622 Z" id="Fill-100"></path>
                <path d="M193.145258,5.33910706 L193.145258,19.0984242 L168.854741,19.0984242 L168.854741,5.46867182 C168.854741,4.17533766 167.769508,3.12956478 166.42737,3.12956478 C165.087635,3.12956478 164,4.17533766 164,5.46867182 L164,37.6608928 C164,38.9542269 165.087635,40 166.42737,40 C167.769508,40 168.854741,38.9542269 168.854741,37.6608928 L168.854741,23.7766383 L193.145258,23.7766383 L193.145258,37.5336417 C193.145258,38.8246625 194.230492,39.8750626 195.572629,39.8750626 C196.914765,39.8750626 198,38.8246625 198,37.5336417 L198,5.33910706 C198,4.04808655 196.914765,3 195.572629,3 C194.230492,3 193.145258,4.04808655 193.145258,5.33910706 Z" id="Fill-101"></path>
                <path d="M51.5,12 C50.6724137,12 50,12.6699508 50,13.5 C50,14.3275862 50.6724137,15 51.5,15 C52.3275863,15 53,14.3275862 53,13.5 C53,12.6699508 52.3275863,12 51.5,12" id="Fill-102"></path>
                <path d="M64.5,12 C63.6724135,12 63,12.6699508 63,13.5 C63,14.3275862 63.6724135,15 64.5,15 C65.3275861,15 66,14.3275862 66,13.5 C66,12.6699508 65.3275861,12 64.5,12" id="Fill-103"></path>
                <path d="M60.7653787,21.2518891 C60.7528622,21.256927 60.187113,21.5465995 59.3459994,21.7481108 L59.3459994,14.4030227 C59.954305,13.6926952 60.4399479,12.604534 60.4399479,11.3828715 C60.4399479,9.2392947 58.8803831,8 57.8264877,8 C56.7725923,8 55.2130274,9.03022668 55.2130274,11.1738035 C55.2130274,12.3425693 55.6986702,13.4483627 56.306976,14.2166247 L56.306976,21.7254408 C55.9665251,21.6221663 55.6235712,21.4811084 55.2906304,21.2821158 C54.5671723,20.8539043 53.6359394,21.0957179 53.2103758,21.8236775 C52.7848123,22.5516373 53.0251307,23.4861461 53.7485883,23.9168766 C55.1204047,24.7304786 56.5247641,25 57.7839312,25 C60.1946232,25 62.0771157,24.0100756 62.1947713,23.9471033 C62.9357525,23.5516373 63.2161238,22.6246851 62.8205998,21.881612 C62.4250763,21.1360201 61.5038564,20.8539043 60.7653787,21.2518891" id="Fill-104"></path>
                <path d="M44,20.5 C44,12.5048544 50.5048545,6 58.5,6 C66.4951458,6 73,12.5048544 73,20.5 C73,28.4951456 66.4951458,35 58.5,35 C50.5048545,35 44,28.4951456 44,20.5 Z M45.0241949,3 C45.560863,3 46.1889815,3.32068164 46.6293863,3.87606508 C46.7906274,4.08055771 46.9157695,4.30596436 47,4.5336948 C46.3381896,4.98450815 45.705258,5.47250195 45.1084252,6 C44.8846127,5.85592563 44.6752401,5.66769946 44.4995596,5.44694036 C44.1626378,5.02168861 43.9821438,4.510457 44.0013967,4.04570101 C44.0086165,3.82958947 44.0735943,3.43222308 44.4008894,3.19054996 C44.5765703,3.06041828 44.7907559,3 45.0241949,3 Z M72.0107235,3 C72.2362035,3 72.4430872,3.05648081 72.6127782,3.17813179 C72.9289151,3.40405503 72.9916777,3.77552498 72.9986509,3.9775525 C73.0172474,4.41202026 72.8429071,4.88993482 72.5174723,5.28747285 C72.2455014,5.61984068 71.8898475,5.86965967 71.5179217,6 C71.0344185,5.57639393 70.5299939,5.17233887 70,4.79652425 C70.0581132,4.45981171 70.2161818,4.11875452 70.4602582,3.81897177 C70.8856483,3.29978276 71.4923519,3 72.0107235,3 Z M75.2735119,7.31635518 C76.0368311,6.31381932 76.4319035,5.11126415 76.3831291,3.92822301 C76.3343545,2.65980782 75.7636944,1.52067341 74.8174712,0.798652441 C72.9274637,-0.647828744 70.0546523,-0.0746026419 68.413394,2.07438542 C68.1207478,2.4597885 67.8817532,2.87446271 67.701288,3.30621173 C64.957729,1.83045942 61.8264133,0.991353983 58.5,0.991353983 C55.3881942,0.991353983 52.4495372,1.7280105 49.8352303,3.03057535 C49.6742747,2.69639673 49.4816159,2.37685367 49.2523763,2.07438542 C47.6111182,-0.0746026419 44.7383066,-0.647828744 42.8482993,0.798652441 C41.9020759,1.52067341 41.3314158,2.65980782 41.2802027,3.92822301 C41.2338669,5.11126415 41.6289394,6.31381932 42.3922586,7.31391591 C42.667834,7.67492641 42.9799902,7.99446948 43.3214107,8.27010586 C40.6217482,11.6167706 39,15.8684008 39,20.495677 C39,31.2503744 47.7476865,40 58.5,40 C69.2523138,40 78,31.2503744 78,20.495677 C78,16.0123171 76.4758004,11.8777714 73.9224614,8.57989186 C74.4297149,8.24571326 74.888194,7.81884274 75.2735119,7.31391591 L75.2735119,7.31635518 Z" id="Fill-105"></path>
            </g>
        </g>
    </g>
</svg>